…
plan(multisession)
x_test <- future_pmap(.l = arg_list_tbl_rho08, .f = .SCE_RVE, .options = opts) |> list_rbind(); x_test
plan(sequential)
```
````

::: {.cell-output .cell-output-stdout}

```
# A tibble: 1 × 7
  formula   var     rand       structure   rho data                model
  <list>    <chr>   <list>     <list>    <dbl> <list>              <chr>
1 <formula> vgt_pop <list [2]> <chr [2]>   0.8 <tibble [202 × 41]> SCEp 
# A tibble: 26 × 19
   Characteric  Moderator    studies effects avg_effect_F  pval df_satt SD_total   rho wald_compared
   <chr>        <chr>          <dbl>   <dbl> <chr>        <dbl>   <dbl>    <dbl> <dbl> <chr>        
 1 outcome_type Outcome type      45     202 <NA>         NA       NA      NA      0.8 <NA>         
 2 outcome_type Alcohol and…       7      31 0.08 [-0.1,…  0.31     4.6     0.22   0.8 <NA>         
 3 outcome_type Hope, empow…      12      32 0.26 [0.12,…  0       10.8     0.2    0.8 <NA>         
 4 outcome_type Loneliness         4       5 0.03 [-0.52…  0.86     2.7     0.28   0.8 <NA>         
 5 outcome_type Self-esteem        5      14 0.43 [0.23,…  0        4       0.16   0.8 <NA>         
 6 outcome_type Social func…      16      47 0.15 [-0.01…  0.06    12.8     0.22   0.8 <NA>         
 7 outcome_type Wellbeing a…      24      67 0.21 [0.11,…  0       13.9     0.18   0.8 <NA>         
 8 outcome_type Other              4       6 0.27 [0.14,…  0.01     3.4     0      0.8 <NA>         
 9 outcome_type Wald test (…      NA      NA F(6, 7) = 1…  0.26    NA      NA      0.8 1,2,3,4,5,6,7
10 outcome_type Outcome type      45     202 <NA>         NA       NA      NA      0.8 <NA>         
# ℹ 16 more rows
# ℹ 9 more variables: controls <chr>, control_vars <chr>, optimizer <chr>, avg_effect <dbl>,
#   LL <dbl>, UL <dbl>, tau2 <dbl>, omega2 <dbl>, t_F <dbl>
```
…
